Eligibility,Participation,Race,Race2,Race3,Size2,People,People2,People3,Size3,Structure,Structure2,Structure3
5.854332,2.469663,"White,","non-Hispanic","",5,"Two","people","",57.6,"Two-parent","family",""
2.721555,1.551047,"Black,","non-Hispanic","",21.3,"Three","people","",37.2,"Single-parent","family",""
1.265684,0.641126,"Other,","non-Hispanic","",29.3,"Four","people","",3.6,"Related","nonparent","caretaker"
5.190958,3.256716,"Hispanic","","",21.5,"Five","people","",1.7,"Unrelated","nonparent","caretaker"
0,0,"","","",23,"Six or more","people","",0,"","",""