category2,date2,graphic2
eligibles,1-Jan-05,822301
eligibles,1-Jan-06,853615
eligibles,1-Jan-07,870455
eligibles,1-Jan-08,867826
eligibles,1-Jan-09,860220
eligibles,1-Jan-10,879159
eligibles,1-Jan-11,886444
eligibles,1-Jan-12,876592
eligibles,1-Jan-13,938157
eligibles,1-Jan-14,998025
eligibles,1-Jan-15,1034333
participants,1-Jan-05,504952
participants,1-Jan-06,529679
participants,1-Jan-07,557743
participants,1-Jan-08,582905
participants,1-Jan-09,588377
participants,1-Jan-10,565952
participants,1-Jan-11,577040
participants,1-Jan-12,591393
participants,1-Jan-13,593612
participants,1-Jan-14,593826
participants,1-Jan-15,593604